{
   "abstract" : "Run arbitrary bash commands using GNU parallel. Can be used on its own or as a part of HPC::Runner::Slurm.",
   "author" : [
      "Jillian Rowe <jillian.e.rowe@gmail.com>"
   ],
   "dynamic_config" : 0,
   "generated_by" : "Dist::Zilla version 5.027, Dist::Milla version v1.0.9, CPAN::Meta::Converter version 2.143240",
   "license" : [
      "perl_5"
   ],
   "meta-spec" : {
      "url" : "http://search.cpan.org/perldoc?CPAN::Meta::Spec",
      "version" : "2"
   },
   "name" : "HPC-Runner-GnuParallel",
   "no_index" : {
      "directory" : [
         "t",
         "xt",
         "inc",
         "share",
         "eg",
         "examples"
      ]
   },
   "prereqs" : {
      "build" : {
         "requires" : {
            "Module::Build" : "0.28"
         }
      },
      "configure" : {
         "requires" : {
            "Module::Build" : "0.28"
         }
      },
      "develop" : {
         "requires" : {
            "Dist::Milla" : "v1.0.9",
            "Test::Pod" : "1.41"
         }
      },
      "runtime" : {
         "requires" : {
            "Carp" : "0",
            "Cwd" : "0",
            "Data::Dumper" : "0",
            "DateTime" : "0",
            "DateTime::Format::Duration" : "0",
            "File::Path" : "0",
            "File::Temp" : "0",
            "HPC::Runner" : "0",
            "HPC::Runner::MCE" : "0",
            "IO::File" : "0",
            "IO::Select" : "0",
            "IPC::Open3" : "0",
            "Log::Log4perl" : "0",
            "Moose" : "0",
            "Moose::Util::TypeConstraints" : "0",
            "MooseX::Getopt" : "0",
            "MooseX::Getopt::Usage::Role::Man" : "0",
            "MooseX::SimpleConfig" : "0",
            "Symbol" : "0",
            "Template" : "0",
            "perl" : "5.008005"
         }
      },
      "test" : {
         "requires" : {
            "Test::More" : "0.96"
         }
      }
   },
   "release_status" : "stable",
   "resources" : {
      "bugtracker" : {
         "web" : "https://bitbucket.org/jir2004/hpc-runner-gnuparallel/issues"
      },
      "homepage" : "https://bitbucket.org/jir2004/hpc-runner-gnuparallel",
      "repository" : {
         "type" : "git",
         "url" : "git://git@bitbucket.org:jir2004/hpc-runner-gnuparallel.git",
         "web" : "https://bitbucket.org/jir2004/hpc-runner-gnuparallel"
      }
   },
   "version" : "0.04",
   "x_contributors" : [
      "Jillian Rowe <jir2004@qatar-med.cornell.edu>"
   ]
}

